<svg id="Layer_1" data-name="Layer 1" xmlns="http://www.w3.org/2000/svg" viewBox="0 0 409.35 116.65">
<defs>
<style>
.cls-1 {
	fill: #2c282c;
}
.cls-2 {
	fill: #fcdc00;
}
</style>
</defs>
<title>Master</title>
<!-- Outer circle -->
<path class="cls-1" d="M50.8,5.75A45.076,45.076,0,1,1,5.728,50.826,45.075,45.075,0,0,1,50.8,5.75M50.8,1A49.826,49.826,0,1,0,100.63,50.826,49.883,49.883,0,0,0,50.8,1Z"/>
<!-- Outer circle background -->
<path class="cls-2" d="M50.8,5.75A45.076,45.076,0,1,1,5.728,50.826,45.075,45.075,0,0,1,50.8,5.75Z"/>
<!-- Circular wave -->
<path class="cls-1" d="M79.557,48.857l3.829-5.509L79.257,33.269l-6.591-1.211-2.928-2.95-1.144-6.6L58.481,18.305l-5.508,3.8-4.128-.023-5.482-3.835L33.249,22.373l-1.211,6.592L29.082,31.9,22.49,33.075,18.283,43.148l3.8,5.511-.022,4.159-3.838,5.487,4.17,10.117L28.975,69.6l2.9,2.946,1.179,6.627,10.072,4.208,5.518-3.8H52.8l5.475,3.831,10.115-4.127,1.21-6.593,2.952-2.928,6.594-1.144L83.357,58.54l-3.8-5.549ZM77.978,59.092,75.769,64.38l-5.5.954L65.2,70.365l-1.009,5.5-5.309,2.166-4.582-3.2H47.167L42.565,78l-5.288-2.209L36.3,70.261l-5-5.074L25.79,64.2,23.6,58.9l3.2-4.573.037-7.133-3.173-4.6,2.21-5.291,5.5-.981,5.065-5.027,1.011-5.5,5.311-2.168,4.574,3.2,7.1.04,4.608-3.175L64.36,25.9l.952,5.5,5.032,5.069,5.5,1.011,2.166,5.285-3.2,4.61v7.093Z"/>
<!-- Inner symbol -->
<path class="cls-1" d="M62.176,38.606l-3.051,3.642A12.967,12.967,0,0,1,50.8,65.16c-.216,0-.426-.021-.639-.032l9.218-14.523L48.977,48.292l7.751-13.711-4.135-2.338L41.686,51.537l10.06,2.236L45.306,63.92a12.951,12.951,0,0,1-3.671-20.9l-3.358-3.359a17.716,17.716,0,1,0,23.9-1.059Z"/>
<!-- 'SoapUI', one <path> per letter -->
<path class="cls-1" d="M153.077,58.972a11.228,11.228,0,0,1-4.384,9.424q-4.383,3.381-11.9,3.381-8.14,0-12.524-2.1V64.545a32.973,32.973,0,0,0,6.137,1.878,32.226,32.226,0,0,0,6.575.689q5.322,0,8.015-2.019a6.627,6.627,0,0,0,2.692-5.62,7.219,7.219,0,0,0-.954-3.9,8.9,8.9,0,0,0-3.194-2.8,44.736,44.736,0,0,0-6.81-2.911q-6.387-2.286-9.126-5.417a11.952,11.952,0,0,1-2.74-8.171,10.162,10.162,0,0,1,3.976-8.422q3.977-3.13,10.52-3.131a31,31,0,0,1,12.555,2.505l-1.659,4.633a28.38,28.38,0,0,0-11.021-2.379,10.674,10.674,0,0,0-6.606,1.815,5.985,5.985,0,0,0-2.38,5.041,7.717,7.717,0,0,0,.877,3.9,8.244,8.244,0,0,0,2.959,2.787,36.785,36.785,0,0,0,6.371,2.8q7.2,2.568,9.91,5.511A10.837,10.837,0,0,1,153.077,58.972Z"/>
<path class="cls-1" d="M188.876,53.962q0,8.391-4.227,13.1t-11.678,4.712a15.47,15.47,0,0,1-8.172-2.16,14.255,14.255,0,0,1-5.51-6.2,21.593,21.593,0,0,1-1.941-9.456q0-8.39,4.195-13.071T173.19,36.21q7.2,0,11.443,4.791T188.876,53.962Zm-26.143,0q0,6.576,2.63,10.019t7.733,3.444q5.1,0,7.749-3.428t2.646-10.035q0-6.543-2.646-9.94t-7.812-3.4q-5.1,0-7.7,3.35T162.733,53.962Z"/>
<path class="cls-1" d="M216.409,71.151l-1.034-4.884h-.25a14.432,14.432,0,0,1-5.119,4.367,15.6,15.6,0,0,1-6.372,1.143q-5.1,0-8-2.63t-2.9-7.482q0-10.4,16.625-10.9l5.824-.188V48.452q0-4.039-1.738-5.964t-5.557-1.926a22.644,22.644,0,0,0-9.706,2.63l-1.6-3.976a24.409,24.409,0,0,1,5.557-2.16,24.063,24.063,0,0,1,6.059-.783q6.135,0,9.095,2.724t2.959,8.735V71.151Zm-11.742-3.663a10.553,10.553,0,0,0,7.625-2.661,9.847,9.847,0,0,0,2.77-7.452v-3.1l-5.2.22q-6.2.219-8.939,1.925a5.807,5.807,0,0,0-2.739,5.307,5.351,5.351,0,0,0,1.706,4.289A7.076,7.076,0,0,0,204.667,67.488Z"/>
<path class="cls-1" d="M243.8,71.777a14.855,14.855,0,0,1-6.121-1.236,11.512,11.512,0,0,1-4.649-3.8h-.376a45.942,45.942,0,0,1,.376,5.7v14.12h-5.2V36.836h4.227l.719,4.7h.251a12.072,12.072,0,0,1,4.665-4.071A14.193,14.193,0,0,1,243.8,36.21q6.826,0,10.536,4.665t3.71,13.087q0,8.454-3.773,13.135T243.8,71.777Zm-.751-31.152q-5.261,0-7.608,2.912T233.029,52.8v1.158q0,7.233,2.411,10.348t7.733,3.115a8.041,8.041,0,0,0,6.966-3.6q2.52-3.6,2.521-9.925,0-6.418-2.521-9.847A8.29,8.29,0,0,0,243.048,40.625Z"/>
<path class="cls-1" d="M299.414,25.377V55q0,7.827-4.727,12.3t-12.994,4.477q-8.265,0-12.79-4.508t-4.524-12.4V25.377H269.7V55.246q0,5.73,3.131,8.8t9.2,3.068q5.791,0,8.922-3.084t3.131-8.844V25.377Z"/>
<path class="cls-1" d="M308.459,71.151V25.377h5.323V71.151Z"/>
<!-- 'TM', one <path> per letter -->
<path class="cls-1" d="M325.65,71.654h-.7V67.971h-1.26v-.6h3.22v.6h-1.26Z"/>
<path class="cls-1" d="M329.718,71.654l-1.242-3.577h-.023q.05.8.049,1.494v2.083h-.635V67.371h.987l1.189,3.407h.018l1.225-3.407h.99v4.283H331.6V69.536q0-.32.016-.832t.028-.621h-.023l-1.287,3.571Z"/>
<!-- 'Supported', one <path> per letter -->
<path class="cls-1" d="M131.41,108.493a3.021,3.021,0,0,1-1.18,2.537,5.113,5.113,0,0,1-3.2.91,8.03,8.03,0,0,1-3.371-.564v-1.383a8.793,8.793,0,0,0,1.652.506,8.672,8.672,0,0,0,1.77.186,3.572,3.572,0,0,0,2.157-.544,1.786,1.786,0,0,0,.725-1.513,1.945,1.945,0,0,0-.257-1.049,2.393,2.393,0,0,0-.86-.754,12.125,12.125,0,0,0-1.833-.784,5.842,5.842,0,0,1-2.456-1.458,3.213,3.213,0,0,1-.738-2.2,2.736,2.736,0,0,1,1.071-2.267,4.444,4.444,0,0,1,2.831-.843,8.358,8.358,0,0,1,3.38.674l-.447,1.247a7.655,7.655,0,0,0-2.966-.64,2.871,2.871,0,0,0-1.779.489,1.61,1.61,0,0,0-.64,1.356,2.085,2.085,0,0,0,.236,1.05,2.231,2.231,0,0,0,.8.75,9.956,9.956,0,0,0,1.715.754,6.8,6.8,0,0,1,2.667,1.483A2.917,2.917,0,0,1,131.41,108.493Z"/>
<path class="cls-1" d="M135.251,102.536v5.991a2.406,2.406,0,0,0,.515,1.685,2.088,2.088,0,0,0,1.609.557,2.629,2.629,0,0,0,2.12-.792,4,4,0,0,0,.67-2.587v-4.854h1.4v9.236h-1.154l-.2-1.239h-.076a2.793,2.793,0,0,1-1.193,1.045,4.013,4.013,0,0,1-1.74.362,3.533,3.533,0,0,1-2.524-.8,3.409,3.409,0,0,1-.839-2.562v-6.042Z"/>
<path class="cls-1" d="M149.01,111.94a3.993,3.993,0,0,1-1.647-.333,3.111,3.111,0,0,1-1.252-1.023h-.1a12.262,12.262,0,0,1,.1,1.533v3.8h-1.4V102.536h1.137l.194,1.263h.067a3.262,3.262,0,0,1,1.256-1.1,3.831,3.831,0,0,1,1.643-.337,3.413,3.413,0,0,1,2.836,1.256,6.683,6.683,0,0,1-.017,7.057A3.42,3.42,0,0,1,149.01,111.94Zm-.2-8.385a2.479,2.479,0,0,0-2.048.784,4.039,4.039,0,0,0-.649,2.494v.312a4.625,4.625,0,0,0,.649,2.785,2.47,2.47,0,0,0,2.082.839,2.162,2.162,0,0,0,1.875-.97,4.593,4.593,0,0,0,.679-2.671,4.425,4.425,0,0,0-.679-2.65A2.232,2.232,0,0,0,148.808,103.555Z"/>
<path class="cls-1" d="M159.843,111.94a3.993,3.993,0,0,1-1.647-.333,3.111,3.111,0,0,1-1.252-1.023h-.1a12.262,12.262,0,0,1,.1,1.533v3.8h-1.4V102.536h1.137l.194,1.263h.067a3.262,3.262,0,0,1,1.256-1.1,3.831,3.831,0,0,1,1.643-.337,3.413,3.413,0,0,1,2.836,1.256,6.683,6.683,0,0,1-.017,7.057A3.42,3.42,0,0,1,159.843,111.94Zm-.2-8.385a2.479,2.479,0,0,0-2.048.784,4.039,4.039,0,0,0-.649,2.494v.312a4.625,4.625,0,0,0,.649,2.785,2.47,2.47,0,0,0,2.082.839,2.162,2.162,0,0,0,1.875-.97,4.593,4.593,0,0,0,.679-2.671,4.425,4.425,0,0,0-.679-2.65A2.232,2.232,0,0,0,159.641,103.555Z"/>
<path class="cls-1" d="M174.417,107.145a5.093,5.093,0,0,1-1.138,3.527,4,4,0,0,1-3.143,1.268,4.163,4.163,0,0,1-2.2-.582,3.832,3.832,0,0,1-1.483-1.668,5.806,5.806,0,0,1-.522-2.545,5.087,5.087,0,0,1,1.129-3.518,3.991,3.991,0,0,1,3.135-1.26,3.91,3.91,0,0,1,3.08,1.289A5.076,5.076,0,0,1,174.417,107.145Zm-7.037,0a4.384,4.384,0,0,0,.708,2.7,2.809,2.809,0,0,0,4.167,0,4.365,4.365,0,0,0,.712-2.7,4.3,4.3,0,0,0-.712-2.676,2.5,2.5,0,0,0-2.1-.914,2.458,2.458,0,0,0-2.072.9A4.334,4.334,0,0,0,167.38,107.145Z"/>
<path class="cls-1" d="M181.329,102.367a5.435,5.435,0,0,1,1.1.1l-.194,1.3a4.786,4.786,0,0,0-1.011-.127,2.462,2.462,0,0,0-1.917.91,3.32,3.32,0,0,0-.8,2.267v4.956h-1.4v-9.236h1.154l.16,1.71h.068a4.067,4.067,0,0,1,1.238-1.391A2.794,2.794,0,0,1,181.329,102.367Z"/>
<path class="cls-1" d="M188.167,110.786a4.507,4.507,0,0,0,.716-.055,4.783,4.783,0,0,0,.548-.114v1.07a2.534,2.534,0,0,1-.67.181,5,5,0,0,1-.8.072q-2.681,0-2.68-2.823v-5.494h-1.323v-.675l1.323-.581.59-1.972h.809v2.141h2.68v1.087h-2.68v5.435a1.871,1.871,0,0,0,.4,1.281A1.378,1.378,0,0,0,188.167,110.786Z"/>
<path class="cls-1" d="M195.342,111.94a4.243,4.243,0,0,1-3.231-1.247,4.826,4.826,0,0,1-1.184-3.463,5.355,5.355,0,0,1,1.1-3.548,3.652,3.652,0,0,1,2.954-1.315,3.484,3.484,0,0,1,2.747,1.142,4.376,4.376,0,0,1,1.011,3.013v.884h-6.362a3.661,3.661,0,0,0,.822,2.47,2.842,2.842,0,0,0,2.195.842,7.447,7.447,0,0,0,2.949-.623v1.247a7.376,7.376,0,0,1-1.4.459A7.862,7.862,0,0,1,195.342,111.94Zm-.379-8.4a2.286,2.286,0,0,0-1.774.725,3.337,3.337,0,0,0-.779,2.006h4.828a3.072,3.072,0,0,0-.59-2.027A2.076,2.076,0,0,0,194.963,103.538Z"/>
<path class="cls-1" d="M207.755,110.533h-.076a3.287,3.287,0,0,1-2.9,1.407,3.43,3.43,0,0,1-2.819-1.239,5.452,5.452,0,0,1-1.006-3.522,5.546,5.546,0,0,1,1.011-3.548,3.4,3.4,0,0,1,2.814-1.264,3.361,3.361,0,0,1,2.883,1.365h.109l-.059-.666-.034-.648V98.659h1.4v13.113H207.94Zm-2.8.236a2.547,2.547,0,0,0,2.077-.78,3.942,3.942,0,0,0,.644-2.515v-.3a4.638,4.638,0,0,0-.653-2.8,2.479,2.479,0,0,0-2.086-.839,2.14,2.14,0,0,0-1.883.957,4.758,4.758,0,0,0-.653,2.7,4.554,4.554,0,0,0,.649,2.671A2.2,2.2,0,0,0,204.958,110.769Z"/>
<!-- 'by', one <path> per letter -->
<path class="cls-1" d="M221.516,102.384a3.432,3.432,0,0,1,2.827,1.243,6.653,6.653,0,0,1-.009,7.053,3.417,3.417,0,0,1-2.818,1.26,4,4,0,0,1-1.648-.333,3.1,3.1,0,0,1-1.251-1.023h-.1l-.295,1.188h-1V98.659h1.4v3.185q0,1.071-.068,1.922h.068A3.32,3.32,0,0,1,221.516,102.384Zm-.2,1.171a2.44,2.44,0,0,0-2.064.822,6.338,6.338,0,0,0,.017,5.553,2.466,2.466,0,0,0,2.081.839,2.158,2.158,0,0,0,1.922-.94,4.832,4.832,0,0,0,.632-2.7,4.644,4.644,0,0,0-.632-2.688A2.242,2.242,0,0,0,221.313,103.555Z"/>
<path class="cls-1" d="M226.562,102.536h1.5l2.023,5.266a20.288,20.288,0,0,1,.826,2.6h.067q.109-.429.46-1.47t2.287-6.4h1.5l-3.969,10.516a5.251,5.251,0,0,1-1.378,2.213,2.932,2.932,0,0,1-1.934.653,5.6,5.6,0,0,1-1.264-.144v-1.121a4.834,4.834,0,0,0,1.037.1,2.138,2.138,0,0,0,2.056-1.618l.514-1.315Z"/>
<!-- 'SMARTBEAR', one <path> per letter -->
<path class="cls-1" d="M256.661,97.488s-3.43-.391-4.85-.391c-2.059,0-3.112.735-3.112,2.18,0,1.568.882,1.935,3.748,2.719,3.528.98,4.8,1.911,4.8,4.777,0,3.674-2.3,5.266-5.609,5.266a35.739,35.739,0,0,1-5.487-.661l.27-2.181s3.306.442,5.046.442c2.082,0,3.037-.931,3.037-2.695,0-1.421-.759-1.911-3.332-2.523-3.625-.931-5.193-2.034-5.193-4.948,0-3.381,2.23-4.777,5.585-4.777a37.162,37.162,0,0,1,5.316.588Z"/>
<path class="cls-1" d="M263.771,94.99H268.5l3.748,13.105L276,94.99h4.752v16.78H278v-14.5h-.144l-4.191,13.816h-2.842l-4.191-13.816h-.145v14.5h-2.719Z"/>
<path class="cls-1" d="M290.816,94.99h5.414l4.164,16.78h-2.743l-1.239-4.924h-5.778L289.4,111.77h-2.72Zm.362,9.456h4.707l-1.737-7.178h-1.225Z"/>
<path class="cls-1" d="M309.166,106.8v4.973h-2.72V94.99h6.37c3.7,0,5.683,2.119,5.683,5.842,0,2.376-.956,4.52-2.744,5.352l2.769,5.586h-2.989L313.11,106.8Zm3.65-9.456h-3.65v7.105h3.7c2.058,0,2.841-1.85,2.841-3.589C315.706,98.946,314.776,97.341,312.816,97.341Z"/>
<path class="cls-1" d="M322.861,94.99h12.247v2.425h-4.727V111.77h-2.744V97.415h-4.776Z"/>
<path class="cls-1" d="M346.941,94.99c3.332,0,5.12,1.249,5.12,4.36,0,2.034-.637,3.037-1.984,3.772,1.445.564,2.4,1.592,2.4,3.895,0,3.43-2.082,4.753-5.34,4.753h-6.565V94.99Zm-3.65,2.351v4.8h3.6c1.666,0,2.4-.833,2.4-2.475,0-1.616-.832-2.327-2.5-2.327Zm0,7.105v4.972h3.7c1.69,0,2.695-.539,2.695-2.548,0-1.91-1.421-2.424-2.744-2.424Z"/>
<path class="cls-1" d="M359.218,94.99H369.8v2.376h-7.864v4.752h6.394v2.328h-6.394v4.923H369.8v2.4H359.218Z"/>
<path class="cls-1" d="M379.551,94.99h5.413l4.165,16.78h-2.744l-1.239-4.924h-5.777l-1.239,4.924h-2.719Zm.361,9.456h4.707l-1.736-7.178h-1.225Z"/>
<path class="cls-1" d="M397.9,106.8v4.973h-2.719V94.99h6.369c3.7,0,5.683,2.119,5.683,5.842,0,2.376-.955,4.52-2.743,5.352l2.768,5.586H404.27l-2.426-4.973Zm3.65-9.456H397.9v7.105h3.7c2.057,0,2.841-1.85,2.841-3.589C404.441,98.946,403.51,97.341,401.55,97.341Z"/>
</svg>
